  [
  {
    "executor": "neck.sew",
    "optionsType": "Variants",
    "options": [
      "turtleNeck",
      "v-Neck",
      "crew-Neck"
    ]
  },
  {
    "executor": "sleeve.sew",
    "optionsType": "Length",
    "options": [
      "short",
      "long"
    ]
  },
  {
    "executor": "pants.cut",
    "optionsType": "Length",
    "options": [
      "short",
      "medium",
      "long"
    ]
  },
  {
    "executor": "skirt.cut",
    "optionsType": "Length",
    "options": [
      "short",
      "medium",
      "long"
    ]
  },
  {
    "executor": "pattern.set",
    "optionsType": "patterns",
    "options": [
      "stripes",
      "dots",
      "stars",
      "flowers",
      "tartan"
    ]
  },
  {
    "executor": "color_1.set",
    "optionsType": "Color",
    "optionsMap": {
      "purple":"#B365E5",
      "blue":"#4F42F5",
      "cyan": "#61F6FF",
      "green": "#7DEA3D",
      "yellow": "#FFEA45",
      "pink": "#FF61A2",
      "orange": "#FFA61E",
      "red": "#D9221C"
    }
  },
  {
    "executor": "color_2.set",
    "optionsType": "Color",
    "optionsMap": {
      "purple":"#B365E5",
      "blue":"#4F42F5",
      "cyan": "#61F6FF",
      "green": "#7DEA3D",
      "yellow": "#FFEA45",
      "pink": "#FF61A2",
      "orange": "#FFA61E",
      "red": "#D9221C"
    }
  }
]